\relax 
\providecommand \oddpage@label [2]{}
\@writefile{toc}{\contentsline {section}{\numberline {1}Question 2}{1}}
\@writefile{toc}{\contentsline {section}{\numberline {2}Question 3}{2}}
\@writefile{toc}{\contentsline {subsection}{\numberline {2.1}(165, 60) = M}{2}}
\@writefile{toc}{\contentsline {subsection}{\numberline {2.2}(159, 61) = M}{2}}
\@writefile{toc}{\contentsline {section}{\numberline {3}Question 4}{4}}
