\relax 
\@writefile{toc}{\contentsline {section}{\numberline {2}Prove or Disprove the following using truth tables}{2}}
\@writefile{toc}{\contentsline {subsection}{\numberline {2.1}}{2}}
\@writefile{toc}{\contentsline {subsection}{\numberline {2.2}}{3}}
\@writefile{toc}{\contentsline {section}{\numberline {3}Convert the followings to CNF forms. You need to use equivalences.}{4}}
\@writefile{toc}{\contentsline {subsection}{\numberline {3.1}}{4}}
\@writefile{toc}{\contentsline {subsection}{\numberline {3.2}}{4}}
