===============================================================
Successful transmissions =  10000  | Retransmissions =  0
---------------------------------------------------------------
Finished sim for tau =  5  ber =  0 timeout =  2.5  in  410000
---------------------------------------------------------------
THROUGHPUT =  2.439 bits/millesecond or  2439.024  bps
===============================================================
===============================================================
Successful transmissions =  10000  | Retransmissions =  0
---------------------------------------------------------------
Finished sim for tau =  5  ber =  0 timeout =  5  in  410000
---------------------------------------------------------------
THROUGHPUT =  2.439 bits/millesecond or  2439.024  bps
===============================================================
===============================================================
Successful transmissions =  10000  | Retransmissions =  0
---------------------------------------------------------------
Finished sim for tau =  5  ber =  0 timeout =  7.5  in  410000
---------------------------------------------------------------
THROUGHPUT =  2.439 bits/millesecond or  2439.024  bps
===============================================================
===============================================================
Successful transmissions =  10000  | Retransmissions =  0
---------------------------------------------------------------
Finished sim for tau =  5  ber =  0 timeout =  10  in  410000
---------------------------------------------------------------
THROUGHPUT =  2.439 bits/millesecond or  2439.024  bps
===============================================================
===============================================================
Successful transmissions =  10000  | Retransmissions =  0
---------------------------------------------------------------
Finished sim for tau =  5  ber =  0 timeout =  12.5  in  410000
---------------------------------------------------------------
THROUGHPUT =  2.439 bits/millesecond or  2439.024  bps
===============================================================
===============================================================
Successful transmissions =  10000  | Retransmissions =  1678
---------------------------------------------------------------
Finished sim for tau =  5  ber =  0.0001 timeout =  2.5  in  478798
---------------------------------------------------------------
THROUGHPUT =  2.089 bits/millesecond or  2088.563  bps
===============================================================
===============================================================
Successful transmissions =  10000  | Retransmissions =  1715
---------------------------------------------------------------
Finished sim for tau =  5  ber =  0.0001 timeout =  5  in  480315
---------------------------------------------------------------
THROUGHPUT =  2.082 bits/millesecond or  2081.967  bps
===============================================================
===============================================================
Successful transmissions =  10000  | Retransmissions =  1728
---------------------------------------------------------------
Finished sim for tau =  5  ber =  0.0001 timeout =  7.5  in  480848
---------------------------------------------------------------
THROUGHPUT =  2.08 bits/millesecond or  2079.659  bps
===============================================================
===============================================================
Successful transmissions =  10000  | Retransmissions =  1709
---------------------------------------------------------------
Finished sim for tau =  5  ber =  0.0001 timeout =  10  in  480069
---------------------------------------------------------------
THROUGHPUT =  2.083 bits/millesecond or  2083.034  bps
===============================================================
===============================================================
Successful transmissions =  10000  | Retransmissions =  1690
---------------------------------------------------------------
Finished sim for tau =  5  ber =  0.0001 timeout =  12.5  in  479290
---------------------------------------------------------------
THROUGHPUT =  2.086 bits/millesecond or  2086.419  bps
===============================================================
===============================================================
Successful transmissions =  10000  | Retransmissions =  151
---------------------------------------------------------------
Finished sim for tau =  5  ber =  1e-05 timeout =  2.5  in  416191
---------------------------------------------------------------
THROUGHPUT =  2.403 bits/millesecond or  2402.743  bps
===============================================================
===============================================================
Successful transmissions =  10000  | Retransmissions =  169
---------------------------------------------------------------
Finished sim for tau =  5  ber =  1e-05 timeout =  5  in  416929
---------------------------------------------------------------
THROUGHPUT =  2.398 bits/millesecond or  2398.49  bps
===============================================================
===============================================================
Successful transmissions =  10000  | Retransmissions =  149
---------------------------------------------------------------
Finished sim for tau =  5  ber =  1e-05 timeout =  7.5  in  416109
---------------------------------------------------------------
THROUGHPUT =  2.403 bits/millesecond or  2403.216  bps
===============================================================
===============================================================
Successful transmissions =  10000  | Retransmissions =  162
---------------------------------------------------------------
Finished sim for tau =  5  ber =  1e-05 timeout =  10  in  416642
---------------------------------------------------------------
THROUGHPUT =  2.4 bits/millesecond or  2400.142  bps
===============================================================
===============================================================
Successful transmissions =  10000  | Retransmissions =  160
---------------------------------------------------------------
Finished sim for tau =  5  ber =  1e-05 timeout =  12.5  in  416560
---------------------------------------------------------------
THROUGHPUT =  2.401 bits/millesecond or  2400.615  bps
===============================================================
===============================================================
Successful transmissions =  10000  | Retransmissions =  0
---------------------------------------------------------------
Finished sim for tau =  250  ber =  0 timeout =  2.5  in  5310000
---------------------------------------------------------------
THROUGHPUT =  0.188 bits/millesecond or  188.324  bps
===============================================================
===============================================================
Successful transmissions =  10000  | Retransmissions =  0
---------------------------------------------------------------
Finished sim for tau =  250  ber =  0 timeout =  5  in  5310000
---------------------------------------------------------------
THROUGHPUT =  0.188 bits/millesecond or  188.324  bps
===============================================================
===============================================================
Successful transmissions =  10000  | Retransmissions =  0
---------------------------------------------------------------
Finished sim for tau =  250  ber =  0 timeout =  7.5  in  5310000
---------------------------------------------------------------
THROUGHPUT =  0.188 bits/millesecond or  188.324  bps
===============================================================
===============================================================
Successful transmissions =  10000  | Retransmissions =  0
---------------------------------------------------------------
Finished sim for tau =  250  ber =  0 timeout =  10  in  5310000
---------------------------------------------------------------
THROUGHPUT =  0.188 bits/millesecond or  188.324  bps
===============================================================
===============================================================
Successful transmissions =  10000  | Retransmissions =  0
---------------------------------------------------------------
Finished sim for tau =  250  ber =  0 timeout =  12.5  in  5310000
---------------------------------------------------------------
THROUGHPUT =  0.188 bits/millesecond or  188.324  bps
===============================================================
===============================================================
Successful transmissions =  10000  | Retransmissions =  1619
---------------------------------------------------------------
Finished sim for tau =  250  ber =  0.0001 timeout =  2.5  in  6169689
---------------------------------------------------------------
THROUGHPUT =  0.162 bits/millesecond or  162.083  bps
===============================================================
===============================================================
Successful transmissions =  10000  | Retransmissions =  1695
---------------------------------------------------------------
Finished sim for tau =  250  ber =  0.0001 timeout =  5  in  6210045
---------------------------------------------------------------
THROUGHPUT =  0.161 bits/millesecond or  161.029  bps
===============================================================
===============================================================
Successful transmissions =  10000  | Retransmissions =  1714
---------------------------------------------------------------
Finished sim for tau =  250  ber =  0.0001 timeout =  7.5  in  6220134
---------------------------------------------------------------
THROUGHPUT =  0.161 bits/millesecond or  160.768  bps
===============================================================
===============================================================
Successful transmissions =  10000  | Retransmissions =  1697
---------------------------------------------------------------
Finished sim for tau =  250  ber =  0.0001 timeout =  10  in  6211107
---------------------------------------------------------------
THROUGHPUT =  0.161 bits/millesecond or  161.002  bps
===============================================================
===============================================================
Successful transmissions =  10000  | Retransmissions =  1649
---------------------------------------------------------------
Finished sim for tau =  250  ber =  0.0001 timeout =  12.5  in  6185619
---------------------------------------------------------------
THROUGHPUT =  0.162 bits/millesecond or  161.665  bps
===============================================================
===============================================================
Successful transmissions =  10000  | Retransmissions =  142
---------------------------------------------------------------
Finished sim for tau =  250  ber =  1e-05 timeout =  2.5  in  5385402
---------------------------------------------------------------
THROUGHPUT =  0.186 bits/millesecond or  185.687  bps
===============================================================
===============================================================
Successful transmissions =  10000  | Retransmissions =  154
---------------------------------------------------------------
Finished sim for tau =  250  ber =  1e-05 timeout =  5  in  5391774
---------------------------------------------------------------
THROUGHPUT =  0.185 bits/millesecond or  185.468  bps
===============================================================
===============================================================
Successful transmissions =  10000  | Retransmissions =  143
---------------------------------------------------------------
Finished sim for tau =  250  ber =  1e-05 timeout =  7.5  in  5385933
---------------------------------------------------------------
THROUGHPUT =  0.186 bits/millesecond or  185.669  bps
===============================================================
===============================================================
Successful transmissions =  10000  | Retransmissions =  155
---------------------------------------------------------------
Finished sim for tau =  250  ber =  1e-05 timeout =  10  in  5392305
---------------------------------------------------------------
THROUGHPUT =  0.185 bits/millesecond or  185.449  bps
===============================================================
===============================================================
Successful transmissions =  10000  | Retransmissions =  148
---------------------------------------------------------------
Finished sim for tau =  250  ber =  1e-05 timeout =  12.5  in  5388588
---------------------------------------------------------------
THROUGHPUT =  0.186 bits/millesecond or  185.577  bps
===============================================================

