\relax 
\@writefile{toc}{\contentsline {section}{\numberline {1}Consider the load-balancing model discussed in class but now assume that the load balancing algorithm is SQ(3), i.e. sample 3 queues at random and join the shortest of them}{1}}
\@writefile{toc}{\contentsline {subsection}{\numberline {1.1}Derive the mean-field equation for SQ(3):}{1}}
\@writefile{toc}{\contentsline {subsection}{\numberline {1.2}Find a steady-state value for \(s = (s0, s1, s2, . . .)\).}{3}}
\@writefile{toc}{\contentsline {section}{\numberline {2}Consider an infinite-server system to which VMs are in the following manner. Let \( \lambda _i \) be the rate at which VMs of type \(i\) arrive into the system, and assume that each VM of type \(i\) stays in the system for \( 1 / \mu _i \) time units on average.}{4}}
\@writefile{toc}{\contentsline {subsection}{\numberline {2.1}Find the expected number of type \(i\) VMs in the system.}{4}}
\@writefile{toc}{\contentsline {subsection}{\numberline {2.2}Assume that VMs of type i require b i units of CPU and each server has B units of CPU available. Find a lower bound on the average number of servers required to serve the above arrival process.}{5}}
\@writefile{toc}{\contentsline {section}{\numberline {3}Consider a cloud system with servers such that each server has 3 units of CPU, 2 units of RAM and, 4 units of disk space. There are three types of VMs, with the resource requesting vector (CPU, RAM, disk space) of each type being:}{6}}
