"Rk","Name","m","s","k","k/s","e","ta","pct","a","a/s","sa","sa/s","digs","d/s","bs","ba","tot","b/s","pts","pts/s"
1,"Alberta",18,70,916,13.09,355,1966,0.285,870,12.43,79,1.13,620,8.86,67,294,214,3.06,1209.0,17.3
2,"Brandon",18,69,917,13.29,349,2046,0.278,867,12.57,70,1.01,669,9.70,73,179,163,2.36,1149.5,16.7
3,"Calgary",18,65,910,14.00,348,1955,0.287,847,13.03,66,1.02,663,10.20,37,285,180,2.76,1155.5,17.8
4,"Dalhousie",17,63,697,11.06,261,1712,0.255,624,9.90,60,0.95,534,8.48,48,232,164,2.60,921.0,14.6
5,"Guelph",20,75,879,11.72,364,1989,0.259,772,10.29,111,1.48,676,9.01,83,210,188,2.51,1178.0,15.7
6,"Laurier",20,72,774,10.75,412,1935,0.187,684,9.50,50,0.69,706,9.81,61,286,204,2.83,1028.0,14.3
7,"Laval",17,58,801,13.81,256,1694,0.322,746,12.86,83,1.43,707,12.19,24,217,133,2.28,1016.5,17.5
8,"Manitoba",18,67,787,11.75,315,1961,0.241,737,11.00,57,0.85,695,10.37,63,257,192,2.86,1035.5,15.5
9,"McMaster",20,83,980,11.81,427,2251,0.246,924,11.13,70,0.84,913,11.00,108,226,221,2.66,1271.0,15.3
10,"Memorial",17,55,458,8.33,342,1562,0.074,409,7.44,33,0.60,582,10.58,39,91,85,1.54,575.5,10.5
11,"Montreal",17,61,574,9.41,336,1683,0.141,519,8.51,53,0.87,551,9.03,21,126,84,1.38,711.0,11.7
12,"Queen's",20,76,932,12.26,362,1965,0.290,820,10.79,114,1.50,691,9.09,121,152,197,2.59,1243.0,16.4
13,"RMC",20,68,607,8.93,326,1798,0.156,539,7.93,69,1.01,724,10.65,119,101,170,2.49,845.5,12.4
14,"Regina",18,59,632,10.71,387,1767,0.139,592,10.03,43,0.73,520,8.81,14,243,136,2.30,810.5,13.7
15,"Ryerson",20,77,807,10.48,473,1957,0.171,732,9.51,95,1.23,545,7.08,126,62,157,2.04,1059.0,13.8
16,"Saskatchewan",18,62,714,11.52,404,1901,0.163,680,10.97,48,0.77,542,8.74,67,144,139,2.24,901.0,14.5
17,"Sherbrooke",17,60,628,10.47,252,1635,0.230,534,8.90,61,1.02,561,9.35,52,238,171,2.85,860.0,14.3
18,"ThompsonRivers",18,71,864,12.17,427,2102,0.208,812,11.44,54,0.76,681,9.59,46,248,170,2.39,1088.0,15.3
19,"Toronto",20,78,830,10.64,526,2361,0.129,770,9.87,92,1.18,841,10.78,109,55,137,1.75,1058.5,13.6
20,"TrinityWestern",18,65,825,12.69,319,1941,0.261,776,11.94,93,1.43,638,9.82,38,360,218,3.35,1136.0,17.5
21,"UBC",18,76,916,12.05,407,2283,0.223,873,11.49,72,0.95,776,10.21,38,250,163,2.14,1151.0,15.1
22,"UNB",17,63,743,11.79,299,1784,0.249,664,10.54,59,0.94,644,10.22,67,261,198,3.13,999.5,15.9
23,"Waterloo",20,74,840,11.35,406,2046,0.212,748,10.11,89,1.20,740,10.00,71,272,207,2.80,1136.0,15.4
24,"Western",20,71,906,12.76,359,2106,0.260,775,10.92,114,1.61,826,11.63,114,159,194,2.73,1213.5,17.1
25,"Windsor",20,74,876,11.84,354,2041,0.256,825,11.15,68,0.92,689,9.31,74,177,163,2.20,1106.5,15.0
26,"Winnipeg",18,62,712,11.48,444,2044,0.131,682,11.00,46,0.74,692,11.16,44,103,96,1.54,853.5,13.8
27,"York",20,74,782,10.57,467,2033,0.155,691,9.34,74,1.00,661,8.93,105,174,192,2.59,1048.0,14.2
1,"Alberta",18,69,870,12.61,359,1941,0.263,812,11.77,61,0.88,704,10.20,63,270,198,2.87,1129.0,16.4
2,"Brandon",18,71,882,12.42,365,2070,0.250,831,11.70,77,1.08,786,11.07,42,178,131,1.85,1090.0,15.4
3,"Calgary",18,68,862,12.68,351,2048,0.250,799,11.75,89,1.31,666,9.79,25,264,157,2.31,1108.0,16.3
4,"Dalhousie",18,59,760,12.88,246,1705,0.301,711,12.05,96,1.63,667,11.31,58,243,180,3.04,1035.5,17.6
5,"Guelph",20,68,823,12.10,361,1933,0.239,736,10.82,93,1.37,636,9.35,157,95,205,3.01,1120.5,16.5
6,"Laurier",20,74,855,11.55,416,2087,0.210,683,9.23,78,1.05,664,8.97,78,258,207,2.80,1140.0,15.4
7,"Laval",18,62,811,13.08,218,1642,0.361,721,11.63,78,1.26,628,10.13,61,218,170,2.74,1059.0,17.1
8,"Manitoba",18,69,848,12.29,385,2115,0.219,790,11.45,63,0.91,649,9.41,53,291,199,2.88,1109.5,16.1
9,"McGill",18,59,607,10.29,314,1626,0.180,587,9.95,44,0.75,735,12.46,75,84,117,1.98,768.0,13.0
10,"McMaster",20,73,833,11.41,367,1951,0.239,744,10.19,74,1.01,715,9.79,99,205,202,2.76,1108.5,15.2
11,"Memorial",18,57,472,8.28,339,1583,0.084,443,7.77,38,0.67,567,9.95,49,101,100,1.75,609.5,10.7
12,"Montreal",18,62,754,12.16,340,1814,0.228,696,11.23,45,0.73,651,10.50,84,84,126,2.03,925.0,14.9
13,"Queen's",20,72,956,13.28,388,2111,0.269,859,11.93,102,1.42,624,8.67,155,48,179,2.49,1237.0,17.2
14,"RMC",20,61,506,8.30,342,1549,0.106,420,6.89,39,0.64,505,8.28,77,33,94,1.53,638.5,10.5
15,"Regina",18,57,512,8.98,376,1625,0.084,485,8.51,39,0.68,487,8.54,30,140,100,1.75,651.0,11.4
16,"Ryerson",20,71,797,11.23,463,1965,0.170,706,9.94,81,1.14,478,6.73,111,24,123,1.73,1001.0,14.1
17,"Saskatchewan",18,67,774,11.55,393,1812,0.210,724,10.81,64,0.96,520,7.76,56,120,116,1.73,954.0,14.2
18,"Sherbrooke",18,64,687,10.73,278,1806,0.226,592,9.25,94,1.47,718,11.22,97,156,175,2.73,956.0,14.9
19,"ThompsonRivers",18,67,857,12.79,331,1948,0.270,798,11.91,80,1.19,615,9.18,51,194,148,2.21,1085.0,16.2
20,"Toronto",20,79,831,10.52,434,1979,0.201,762,9.65,92,1.16,644,8.15,158,116,216,2.73,1139.0,14.4
21,"TrinityWestern",18,73,938,12.85,366,2208,0.259,833,11.41,69,0.95,829,11.36,36,262,167,2.29,1174.0,16.1
22,"UBC",18,67,740,11.04,365,2039,0.184,703,10.49,48,0.72,721,10.76,39,273,176,2.62,963.5,14.4
23,"UNB",18,65,736,11.32,377,1880,0.191,689,10.60,94,1.45,643,9.89,72,189,167,2.56,996.5,15.3
24,"Waterloo",20,82,894,10.90,451,2149,0.206,761,9.28,97,1.18,653,7.96,106,251,232,2.82,1222.5,14.9
25,"Western",20,73,886,12.14,370,2154,0.240,757,10.37,101,1.38,786,10.77,100,150,175,2.40,1162.0,15.9
26,"Windsor",20,76,923,12.14,384,2030,0.266,839,11.04,74,0.97,654,8.61,118,174,205,2.70,1202.0,15.8
27,"Winnipeg",18,70,884,12.63,395,2054,0.238,845,12.07,65,0.93,679,9.70,73,112,129,1.84,1078.0,15.4
28,"York",20,73,699,9.58,445,1902,0.134,638,8.74,85,1.16,625,8.56,82,181,173,2.36,956.5,13.1
1,"Alberta",20,74,971,13.12,386,2164,0.270,912,12.32,100,1.35,722,9.76,45,293,192,2.59,1262.5,17.1
2,"Brandon",20,77,997,12.95,422,2404,0.239,940,12.21,84,1.09,835,10.84,66,242,187,2.43,1268.0,16.5
3,"Calgary",20,73,984,13.48,428,2329,0.239,913,12.51,92,1.26,817,11.19,37,300,187,2.56,1263.0,17.3
4,"Dalhousie",17,64,789,12.33,310,1741,0.275,753,11.77,69,1.08,826,12.91,40,283,182,2.84,1039.5,16.2
5,"Guelph",18,66,721,10.92,379,1799,0.190,670,10.15,92,1.39,519,7.86,69,185,162,2.45,974.5,14.8
6,"Laval",17,56,725,12.95,202,1476,0.354,682,12.18,71,1.27,682,12.18,35,235,153,2.72,948.5,16.9
7,"Manitoba",22,79,1002,12.68,352,2494,0.261,942,11.92,66,0.84,967,12.24,71,401,272,3.44,1339.5,17.0
8,"McMaster",18,67,779,11.63,297,1731,0.278,678,10.12,89,1.33,643,9.60,118,148,192,2.87,1060.0,15.8
9,"Memorial",17,58,575,9.91,340,1572,0.149,529,9.12,42,0.72,778,13.41,43,119,103,1.77,719.5,12.4
10,"Montreal",17,61,597,9.79,326,1623,0.167,536,8.79,49,0.80,645,10.57,36,131,102,1.66,747.5,12.3
11,"Queen's",18,66,770,11.67,337,1751,0.247,705,10.68,78,1.18,683,10.35,105,131,171,2.58,1018.5,15.4
12,"RMC",18,54,345,6.39,203,1088,0.131,326,6.04,19,0.35,404,7.48,78,59,108,1.99,471.5,8.7
13,"Regina",20,73,835,11.44,438,2321,0.171,793,10.86,71,0.97,752,10.30,27,223,139,1.90,1044.5,14.3
14,"Ryerson",18,62,633,10.21,392,1645,0.147,586,9.45,71,1.15,476,7.68,87,49,112,1.80,815.5,13.2
15,"Saskatchewan",20,84,1022,12.17,454,2518,0.226,957,11.39,95,1.13,774,9.21,74,209,179,2.13,1295.5,15.4
16,"Sherbrooke",17,66,724,10.97,318,1942,0.209,641,9.71,82,1.24,687,10.41,65,151,141,2.13,946.5,14.3
17,"ThompsonRivers",20,76,856,11.26,465,2169,0.180,818,10.76,69,0.91,703,9.25,57,243,179,2.35,1103.5,14.5
18,"Toronto",18,67,740,11.04,450,1937,0.150,673,10.04,70,1.04,663,9.90,89,112,145,2.16,955.0,14.3
19,"TrinityWestern",20,71,971,13.68,303,2101,0.318,904,12.73,115,1.62,779,10.97,38,329,203,2.85,1288.5,18.1
20,"UBC",20,69,830,12.03,389,2269,0.194,788,11.42,41,0.59,833,12.07,50,291,196,2.83,1066.5,15.5
21,"UBCOkanagan",22,77,960,12.47,414,2410,0.227,906,11.77,74,0.96,775,10.06,58,304,210,2.73,1244.0,16.2
22,"UNB",17,61,687,11.26,317,1711,0.216,688,11.28,62,1.02,568,9.31,57,242,178,2.92,927.0,15.2
23,"Waterloo",18,65,747,11.49,297,1760,0.256,674,10.37,82,1.26,671,10.32,76,216,184,2.83,1013.0,15.6
24,"Western",18,60,774,12.90,272,1573,0.319,698,11.63,100,1.67,531,8.85,62,186,155,2.58,1029.0,17.1
25,"Windsor",18,67,828,12.36,370,1895,0.242,784,11.70,84,1.25,595,8.88,74,146,147,2.19,1059.0,15.8
26,"Winnipeg",20,75,923,12.31,463,2504,0.184,874,11.65,70,0.93,957,12.76,63,179,153,2.03,1145.5,15.3
27,"York",18,70,713,10.19,405,1943,0.159,665,9.50,67,0.96,689,9.84,110,144,182,2.60,962.0,13.7
1,"Alberta",24,94,1225,13.03,459,2549,0.301,1149,12.22,113,1.20,755,8.03,63,354,240,2.55,1578.0,16.8
2,"Brandon",24,91,1150,12.64,479,2585,0.260,1092,12.00,124,1.36,924,10.15,57,357,236,2.59,1509.5,16.6
3,"Calgary",24,94,1094,11.64,482,2588,0.236,1020,10.85,127,1.35,823,8.76,39,314,196,2.09,1417.0,15.1
4,"Dalhousie",17,61,845,13.85,229,1805,0.341,777,12.74,90,1.48,657,10.77,94,175,182,2.98,1116.5,18.3
5,"Guelph",20,77,804,10.44,397,2072,0.196,720,9.35,92,1.19,683,8.87,91,190,186,2.42,1082.0,14.1
6,"Laval",17,61,759,12.44,257,1531,0.328,694,11.38,80,1.31,546,8.95,48,172,134,2.20,973.0,16.0
7,"MacEwan",24,87,876,10.07,573,2507,0.121,839,9.64,56,0.64,746,8.57,46,219,156,1.79,1087.5,12.5
8,"Manitoba",24,96,1143,11.91,496,2700,0.240,1071,11.16,108,1.13,872,9.08,61,374,248,2.58,1499.0,15.6
9,"McMaster",20,65,857,13.18,290,1650,0.344,779,11.98,94,1.45,521,8.02,123,136,191,2.94,1142.0,17.6
10,"Memorial",17,56,416,7.43,284,1391,0.095,388,6.93,60,1.07,419,7.48,62,106,115,2.05,591.0,10.6
11,"Montreal",17,63,699,11.10,276,1674,0.253,632,10.03,77,1.22,614,9.75,72,185,165,2.61,940.5,14.9
12,"MountRoyal",24,94,1067,11.35,494,2623,0.218,991,10.54,129,1.37,867,9.22,29,386,222,2.36,1418.0,15.1
13,"Nipissing",20,71,746,10.51,394,1922,0.183,722,10.17,79,1.11,634,8.93,141,64,173,2.44,998.0,14.1
14,"Queen's",20,72,870,12.08,335,2147,0.249,814,11.31,107,1.49,810,11.25,89,156,167,2.32,1144.0,15.9
15,"RMC",20,64,439,6.86,303,1654,0.082,393,6.14,44,0.69,551,8.61,66,54,93,1.45,576.0,9.0
16,"Regina",24,82,834,10.17,553,2445,0.115,805,9.82,71,0.87,813,9.91,16,244,138,1.68,1043.0,12.7
17,"Ryerson",20,75,923,12.31,353,2051,0.278,844,11.25,121,1.61,637,8.49,169,87,213,2.83,1256.5,16.8
18,"Saskatchewan",24,92,1129,12.27,470,2715,0.243,1074,11.67,120,1.30,888,9.65,62,318,221,2.40,1470.0,16.0
19,"Sherbrooke",17,63,634,10.06,337,1650,0.180,599,9.51,75,1.19,593,9.41,52,161,133,2.10,841.5,13.4
20,"ThompsonRivers",24,93,1138,12.24,482,2614,0.251,1084,11.66,126,1.35,862,9.27,44,289,189,2.03,1452.5,15.6
21,"Toronto",20,75,829,11.05,471,2081,0.172,787,10.49,73,0.97,743,9.91,104,50,129,1.72,1031.0,13.7
22,"TrinityWestern",24,93,1157,12.44,393,2664,0.287,1078,11.59,143,1.54,902,9.70,40,470,275,2.96,1575.0,16.9
23,"UBC",24,96,1237,12.89,463,2740,0.282,1170,12.19,105,1.09,905,9.43,66,363,248,2.58,1589.5,16.6
24,"UBCOkanagan",24,87,926,10.64,452,2431,0.195,863,9.92,84,0.97,785,9.02,58,292,204,2.34,1214.0,14.0
25,"UNB",17,64,718,11.22,315,1802,0.224,672,10.50,64,1.00,637,9.95,56,206,159,2.48,941.0,14.7
26,"Waterloo",20,74,895,12.09,367,2132,0.248,842,11.38,105,1.42,818,11.05,95,257,224,3.02,1223.5,16.5
27,"Western",20,78,875,11.22,404,1985,0.237,816,10.46,86,1.10,618,7.92,82,182,173,2.22,1134.0,14.5
28,"Windsor",20,81,935,11.54,451,2200,0.220,876,10.81,114,1.41,722,8.91,103,94,150,1.85,1199.0,14.8
29,"Winnipeg",24,91,1148,12.62,469,2536,0.268,1043,11.46,125,1.37,815,8.96,57,294,204,2.24,1477.0,16.2
30,"York",20,78,964,12.36,384,2107,0.275,892,11.44,96,1.23,694,8.90,95,128,159,2.04,1219.0,15.6
1,"Alberta",24,82,1163,14.18,376,2283,0.345,1099,13.40,121,1.48,742,9.05,57,329,222,2.70,1505.5,18.4
2,"Brandon",24,89,1023,11.49,501,2646,0.197,968,10.88,99,1.11,838,9.42,52,313,209,2.34,1330.5,14.9
3,"Calgary",24,92,1157,12.58,487,2702,0.248,1028,11.17,133,1.45,844,9.17,39,348,213,2.32,1503.0,16.3
4,"Dalhousie",16,62,715,11.53,309,1830,0.222,678,10.94,78,1.26,647,10.44,30,258,159,2.56,952.0,15.4
5,"Guelph",20,76,854,11.24,420,2042,0.213,754,9.92,84,1.11,619,8.14,49,178,138,1.82,1076.0,14.2
6,"Laval",17,61,774,12.69,236,1705,0.316,727,11.92,67,1.10,736,12.07,52,183,144,2.35,984.5,16.1
7,"MacEwan",24,87,936,10.76,491,2527,0.176,901,10.36,75,0.86,771,8.86,45,250,170,1.95,1181.0,13.6
8,"Manitoba",24,89,1188,13.35,388,2530,0.316,1121,12.60,93,1.04,846,9.51,56,318,215,2.42,1496.0,16.8
9,"McMaster",20,68,891,13.10,303,1856,0.317,795,11.69,129,1.90,600,8.82,97,138,166,2.44,1186.0,17.4
10,"Memorial",16,50,419,8.38,292,1372,0.093,402,8.04,58,1.16,459,9.18,21,163,103,2.05,579.5,11.6
11,"Montreal",17,69,754,10.93,242,1839,0.278,712,10.32,64,0.93,736,10.67,51,254,178,2.58,996.0,14.4
12,"MountRoyal",24,87,1096,12.60,419,2504,0.270,1035,11.90,117,1.34,853,9.80,29,356,207,2.38,1420.0,16.3
13,"Nipissing",20,80,867,10.84,377,2126,0.230,821,10.26,84,1.05,696,8.70,74,219,184,2.29,1134.5,14.2
14,"Queen's",20,70,911,13.01,303,2024,0.300,848,12.11,107,1.53,702,10.03,61,187,155,2.21,1172.5,16.8
15,"Regina",24,85,885,10.41,545,2555,0.133,838,9.86,71,0.84,875,10.29,29,227,143,1.68,1098.5,12.9
16,"Ryerson",20,74,982,13.27,365,2066,0.299,911,12.31,121,1.64,641,8.66,77,151,153,2.06,1255.5,17.0
17,"Saskatchewan",24,91,1123,12.34,441,2441,0.279,1057,11.62,117,1.29,769,8.45,51,337,220,2.41,1459.5,16.0
18,"Sherbrooke",17,66,665,10.08,264,1771,0.226,617,9.35,84,1.27,678,10.27,32,179,122,1.84,870.5,13.2
19,"ThompsonRivers",24,92,1165,12.66,521,2603,0.247,1101,11.97,141,1.53,870,9.46,34,256,162,1.76,1468.0,16.0
20,"Toronto",20,75,925,12.33,404,2213,0.235,816,10.88,81,1.08,925,12.33,111,90,156,2.08,1162.0,15.5
21,"TrinityWestern",24,86,1067,12.41,367,2446,0.286,1013,11.78,123,1.43,806,9.37,21,375,209,2.42,1398.5,16.3
22,"UBC",24,91,1110,12.20,460,2688,0.242,1027,11.29,103,1.13,909,9.99,64,348,238,2.62,1451.0,15.9
23,"UBCOkanagan",24,93,1050,11.29,486,2665,0.212,996,10.71,82,0.88,863,9.28,51,282,192,2.06,1324.0,14.2
24,"UNB",17,64,769,12.02,327,1860,0.238,734,11.47,84,1.31,721,11.27,41,215,149,2.32,1001.5,15.6
25,"Waterloo",20,76,975,12.83,435,2290,0.236,915,12.04,101,1.33,805,10.59,53,213,160,2.10,1235.5,16.3
26,"Western",20,76,890,11.71,398,2071,0.238,832,10.95,92,1.21,662,8.71,79,170,164,2.16,1146.0,15.1
27,"Windsor",20,70,781,11.16,402,2067,0.183,734,10.49,74,1.06,660,9.43,87,108,141,2.01,996.0,14.2
28,"Winnipeg",24,92,1168,12.70,446,2657,0.272,1032,11.22,109,1.18,845,9.18,59,250,184,2.00,1461.0,15.9
29,"York",20,77,910,11.82,413,2219,0.224,853,11.08,103,1.34,729,9.47,61,251,187,2.42,1199.5,15.6
1,"Alberta",22,78,1077,13.81,392,2287,0.300,1014,13.00,104,1.33,835,10.71,38,291,184,2.35,1364.5,17.5
2,"Brandon",22,87,1097,12.61,515,2743,0.212,1031,11.85,106,1.22,956,10.99,77,314,234,2.69,1437.0,16.5
3,"Calgary",22,82,915,11.16,454,2436,0.189,841,10.26,102,1.24,841,10.26,44,267,178,2.16,1194.5,14.6
4,"Dalhousie",16,63,702,11.14,326,1799,0.209,662,10.51,83,1.32,604,9.59,60,215,168,2.66,952.5,15.1
5,"Guelph",18,67,735,10.97,369,1813,0.202,666,9.94,112,1.67,549,8.19,62,174,149,2.22,996.0,14.9
6,"Laval",17,54,716,13.26,201,1430,0.360,663,12.28,72,1.33,503,9.31,60,184,152,2.81,940.0,17.4
7,"Manitoba",22,85,1043,12.27,375,2565,0.260,969,11.40,81,0.95,940,11.06,77,369,262,3.08,1385.5,16.3
8,"McMaster",18,63,773,12.27,288,1665,0.291,684,10.86,99,1.57,563,8.94,91,157,170,2.69,1041.5,16.5
9,"Memorial",16,57,540,9.47,351,1483,0.127,525,9.21,45,0.79,464,8.14,44,104,96,1.68,681.0,11.9
10,"Montreal",17,65,693,10.66,355,1815,0.186,638,9.82,78,1.20,539,8.29,73,152,149,2.29,920.0,14.2
11,"MountRoyal",22,86,1032,12.00,475,2705,0.206,972,11.30,99,1.15,951,11.06,37,297,186,2.16,1316.5,15.3
12,"Queen's",18,68,766,11.26,402,2039,0.179,704,10.35,81,1.19,733,10.78,85,225,198,2.90,1044.5,15.4
13,"RMC",18,57,407,7.14,291,1377,0.084,352,6.18,32,0.56,433,7.60,76,52,102,1.79,541.0,9.5
14,"Regina",22,80,835,10.44,496,2478,0.137,793,9.91,72,0.90,809,10.11,30,262,161,2.01,1068.0,13.3
15,"Ryerson",18,65,773,11.89,338,1720,0.253,686,10.55,80,1.23,443,6.82,101,48,125,1.92,978.0,15.0
16,"Saskatchewan",22,82,1081,13.18,406,2614,0.258,1015,12.38,86,1.05,961,11.72,84,178,173,2.11,1340.0,16.3
17,"Sherbrooke",17,65,733,11.28,335,1883,0.211,690,10.62,71,1.09,656,10.09,57,156,135,2.08,939.0,14.4
18,"ThompsonRivers",22,78,929,11.91,445,2312,0.209,886,11.36,85,1.09,870,11.15,56,167,140,1.79,1153.5,14.8
19,"Toronto",18,68,712,10.47,387,1825,0.178,677,9.96,61,0.90,599,8.81,103,96,151,2.22,924.0,13.6
20,"TrinityWestern",22,91,1137,12.49,426,2856,0.249,1092,12.00,144,1.58,1125,12.36,43,446,266,2.92,1547.0,17.0
21,"UBC",22,85,1035,12.18,434,2522,0.238,976,11.48,82,0.96,899,10.58,58,395,256,3.01,1372.5,16.1
22,"UBCOkanagan",22,81,848,10.47,478,2461,0.150,809,9.99,66,0.81,841,10.38,52,285,195,2.40,1108.5,13.7
23,"UNB",17,60,747,12.45,282,1706,0.273,708,11.80,71,1.18,576,9.60,66,235,184,3.06,1001.5,16.7
24,"Waterloo",18,71,849,11.96,355,2036,0.243,743,10.46,87,1.23,737,10.38,70,253,197,2.77,1132.5,16.0
25,"Western",18,64,792,12.38,332,1791,0.257,729,11.39,104,1.63,588,9.19,74,142,145,2.27,1041.0,16.3
26,"Windsor",18,66,747,11.32,355,1938,0.202,703,10.65,87,1.32,638,9.67,84,71,120,1.81,953.5,14.4
27,"Winnipeg",22,83,1018,12.27,527,2542,0.193,965,11.63,81,0.98,873,10.52,82,253,209,2.51,1307.5,15.8
28,"York",18,67,800,11.94,325,1892,0.251,752,11.22,64,0.96,664,9.91,125,105,178,2.65,1041.5,15.5
