\relax 
\@writefile{toc}{\contentsline {section}{\numberline {1}Consider the web graph}{1}}
\@writefile{toc}{\contentsline {subsection}{\numberline {1.1}Write the probability transition matrix P of the graph}{1}}
\@writefile{toc}{\contentsline {subsection}{\numberline {1.2}Starting with the initial guess of the ranks \(r(0) = (\frac  {1}{4} \frac  {1}{4} \frac  {1}{4} \frac  {1}{4}) \) find \( r(1) \tmspace  +\medmuskip {.2222em} and \tmspace  +\medmuskip {.2222em} r(2) \) by computing \( r(1) = r(0)P \) and \( r(2) = r(1)P \)}{1}}
\@writefile{toc}{\contentsline {subsection}{\numberline {1.3}Find r(t) when t goes to infinity}{2}}
\@writefile{toc}{\contentsline {section}{\numberline {2}Consider two network traffic flows from a source node to a destination node, each has 1 Gbps of data to transmit. There are two links available: link A has capacity of 2 Gbps, link B has capacity of 4 Gbps. Assume that each flow can use both link A and B. Formulate an optimization problem to distribute the data generated by the two flows on the links with a reasonable objective (e.g., minimizing network delay).}{4}}
\@writefile{toc}{\contentsline {section}{\numberline {3}K-means}{5}}
\@writefile{toc}{\contentsline {subsection}{\numberline {3.1}Instead of holding the number of clusters k fixed, one can think of minimizing (1) over both k and c. Show that this is a bad idea. Specifically, what is the minimum possible value of (1)? what values of k and c result in this value?}{5}}
\@writefile{toc}{\contentsline {subsection}{\numberline {3.2}Consider the case where k = 3 and d = 1 and we have 4 data points x1 = 1, x2 = 2, x3 = 5, x4 = 7. What is the optimal clustering for this data? What is the corresponding value of the objective (1)?}{5}}
\@writefile{toc}{\contentsline {subsection}{\numberline {3.3}One might be tempted to think that k–means algorithm is guaranteed to converge to the global minimum when d = 1. Show that there exists a cluster assignment for the data in b, which is not optimal and the algorithm will not be able to improve.}{5}}
